Validation/small_calculator/small_calculator_waveform.vcd
$date
	Tue Oct  9 08:29:30 2018
$end
$version
	Icarus Verilog
$end
$timescale
	1ps
$end
$scope module small_calculator $end
$var wire 1 ! clk $end
$var wire 1 " go $end
$var wire 4 # in1 [3:0] $end
$var wire 4 $ in2 [3:0] $end
$var wire 2 % op [1:0] $end
$var wire 1 & we $end
$var wire 2 ' wa [1:0] $end
$var wire 1 ( s2 $end
$var wire 2 ) s1 [1:0] $end
$var wire 1 * reb $end
$var wire 1 + rea $end
$var wire 2 , rab [1:0] $end
$var wire 2 - raa [1:0] $end
$var wire 4 . out [3:0] $end
$var wire 1 / done $end
$var wire 2 0 c [1:0] $end
$var wire 3 1 CS [2:0] $end
$scope module CU $end
$var wire 1 ! clk $end
$var wire 1 " go $end
$var wire 2 2 op [1:0] $end
$var wire 1 & we $end
$var wire 2 3 wa [1:0] $end
$var wire 1 ( s2 $end
$var wire 2 4 s1 [1:0] $end
$var wire 1 * reb $end
$var wire 1 + rea $end
$var wire 2 5 rab [1:0] $end
$var wire 2 6 raa [1:0] $end
$var wire 1 / done $end
$var wire 2 7 c [1:0] $end
$var reg 3 8 CS [2:0] $end
$var reg 3 9 NS [2:0] $end
$var reg 15 : control [14:0] $end
$upscope $end
$scope module DP $end
$var wire 2 ; c [1:0] $end
$var wire 1 ! clk $end
$var wire 4 < in1 [3:0] $end
$var wire 4 = in2 [3:0] $end
$var wire 2 > raa [1:0] $end
$var wire 2 ? rab [1:0] $end
$var wire 1 + rea $end
$var wire 1 * reb $end
$var wire 2 @ s1 [1:0] $end
$var wire 1 ( s2 $end
$var wire 2 A wa [1:0] $end
$var wire 1 & we $end
$var wire 4 B out [3:0] $end
$var wire 4 C mux1out [3:0] $end
$var wire 4 D doutb [3:0] $end
$var wire 4 E douta [3:0] $end
$var wire 4 F aluout [3:0] $end
$scope module ALU $end
$var wire 2 G c [1:0] $end
$var wire 4 H in1 [3:0] $end
$var wire 4 I in0 [3:0] $end
$var reg 4 J alu_out [3:0] $end
$upscope $end
$scope module MUX1 $end
$var wire 4 K in0 [3:0] $end
$var wire 4 L in1 [3:0] $end
$var wire 4 M in2 [3:0] $end
$var wire 4 N in3 [3:0] $end
$var wire 2 O sel [1:0] $end
$var reg 4 P out [3:0] $end
$upscope $end
$scope module MUX2 $end
$var wire 4 Q in0 [3:0] $end
$var wire 4 R in1 [3:0] $end
$var wire 1 ( sel $end
$var wire 4 S out [3:0] $end
$upscope $end
$scope module RF $end
$var wire 1 ! clk $end
$var wire 4 T din [3:0] $end
$var wire 2 U raa [1:0] $end
$var wire 2 V rab [1:0] $end
$var wire 1 + rea $end
$var wire 1 * reb $end
$var wire 2 W wa [1:0] $end
$var wire 1 & we $end
$var wire 4 X doutb [3:0] $end
$var wire 4 Y douta [3:0] $end
$upscope $end
$upscope $end
$upscope $end
$enddefinitions $end
#0
$dumpvars
b0 Y
b0 X
b1 W
b0 V
b0 U
b101 T
b0 S
b0 R
b0 Q
b101 P
b1 O
b0 N
b1010 M
b101 L
b0 K
b0 J
b0 I
b0 H
b0 G
b0 F
b0 E
b0 D
b101 C
b0 B
b1 A
b1 @
b0 ?
b0 >
b1010 =
b101 <
b0 ;
b10110000000000 :
b10 9
b1 8
b0 7
b0 6
b0 5
b1 4
b1 3
b0 2
b1 1
b0 0
0/
b0 .
b0 -
b0 ,
0+
0*
b1 )
0(
b1 '
1&
b0 %
b1010 $
b101 #
1"
1!
$end
#5
0"
#50
0!
#100
b1010 C
b1010 P
b1010 T
b10 )
b10 4
b10 @
b10 O
b10 '
b10 3
b10 A
b10 W
b101010000000000 :
b11 9
b10 1
b10 8
1!
#150
0!
#200
b1111 F
b1111 J
b1111 N
b1111 R
b101 E
b101 I
b101 Y
b1010 D
b1010 H
b1010 X
b1111 C
b1111 P
b1111 T
b11 )
b11 4
b11 @
b11 O
b11 '
b11 3
b11 A
b11 W
b1 -
b1 6
b1 >
b1 U
1+
b10 ,
b10 5
b10 ?
b10 V
1*
b111110111010000 :
b100 9
b11 1
b11 8
1!
#250
0!
#300
b1111 .
b1111 B
b1111 S
b0 C
b0 P
b0 T
b1111 E
b1111 I
b1111 Y
b1111 D
b1111 H
b1111 X
b1111 F
b1111 J
b1111 N
b1111 R
b0 )
b0 4
b0 @
b0 O
b0 '
b0 3
b0 A
b0 W
0&
b11 -
b11 6
b11 >
b11 U
b11 ,
b11 5
b11 ?
b11 V
b10 0
b10 7
b10 ;
b10 G
1(
1/
b1111111011 :
b0 9
b100 1
b100 8
1!
#350
0!
#400
b0 .
b0 B
b0 S
b0 E
b0 I
b0 Y
b0 D
b0 H
b0 X
b0 F
b0 J
b0 N
b0 R
b0 -
b0 6
b0 >
b0 U
0+
b0 ,
b0 5
b0 ?
b0 V
0*
b0 0
b0 7
b0 ;
b0 G
0(
0/
b0 :
b0 1
b0 8
1!
#401
b1 9
b10 %
b10 2
1"
#451
0!
#501
b101 C
b101 P
b101 T
b1 )
b1 4
b1 @
b1 O
b1 '
b1 3
b1 A
b1 W
1&
b10110000000000 :
b10 9
b1 1
b1 8
1!
#506
0"
#551
0!
#601
b1010 C
b1010 P
b1010 T
b10 )
b10 4
b10 @
b10 O
b10 '
b10 3
b10 A
b10 W
b101010000000000 :
b11 9
b10 1
b10 8
1!
#651
0!
#701
b101 E
b101 I
b101 Y
b1010 D
b1010 H
b1010 X
b0 C
b0 P
b0 T
b11 )
b11 4
b11 @
b11 O
b11 '
b11 3
b11 A
b11 W
b1 -
b1 6
b1 >
b1 U
1+
b10 ,
b10 5
b10 ?
b10 V
1*
b10 0
b10 7
b10 ;
b10 G
b111110111011000 :
b100 9
b11 1
b11 8
1!
#751
0!
#801
b0 E
b0 I
b0 Y
b0 D
b0 H
b0 X
b0 )
b0 4
b0 @
b0 O
b0 '
b0 3
b0 A
b0 W
0&
b11 -
b11 6
b11 >
b11 U
b11 ,
b11 5
b11 ?
b11 V
1(
1/
b1111111011 :
b0 9
b100 1
b100 8
1!
#851
0!
#901
b0 -
b0 6
b0 >
b0 U
0+
b0 ,
b0 5
b0 ?
b0 V
0*
b0 0
b0 7
b0 ;
b0 G
0(
0/
b0 :
b0 1
b0 8
1!
#902
b1 9
b11 %
b11 2
1"
#952
0!
#1002
b101 C
b101 P
b101 T
b1 )
b1 4
b1 @
b1 O
b1 '
b1 3
b1 A
b1 W
1&
b10110000000000 :
b10 9
b1 1
b1 8
1!
#1007
0"
#1052
0!
#1102
b1010 C
b1010 P
b1010 T
b10 )
b10 4
b10 @
b10 O
b10 '
b10 3
b10 A
b10 W
b101010000000000 :
b11 9
b10 1
b10 8
1!
#1152
0!
#1202
b1111 F
b1111 J
b1111 N
b1111 R
b101 E
b101 I
b101 Y
b1010 D
b1010 H
b1010 X
b1111 C
b1111 P
b1111 T
b11 )
b11 4
b11 @
b11 O
b11 '
b11 3
b11 A
b11 W
b1 -
b1 6
b1 >
b1 U
1+
b10 ,
b10 5
b10 ?
b10 V
1*
b11 0
b11 7
b11 ;
b11 G
b111110111011100 :
b100 9
b11 1
b11 8
1!
#1252
0!
#1302
b1111 .
b1111 B
b1111 S
b0 C
b0 P
b0 T
b1111 E
b1111 I
b1111 Y
b1111 D
b1111 H
b1111 X
b1111 F
b1111 J
b1111 N
b1111 R
b0 )
b0 4
b0 @
b0 O
b0 '
b0 3
b0 A
b0 W
0&
b11 -
b11 6
b11 >
b11 U
b11 ,
b11 5
b11 ?
b11 V
b10 0
b10 7
b10 ;
b10 G
1(
1/
b1111111011 :
b0 9
b100 1
b100 8
1!
#1352
0!
#1402
b0 .
b0 B
b0 S
b0 E
b0 I
b0 Y
b0 D
b0 H
b0 X
b0 F
b0 J
b0 N
b0 R
b0 -
b0 6
b0 >
b0 U
0+
b0 ,
b0 5
b0 ?
b0 V
0*
b0 0
b0 7
b0 ;
b0 G
0(
0/
b0 :
b0 1
b0 8
1!
#1403
b1 9
b1 %
b1 2
1"
#1453
0!
#1503
b101 C
b101 P
b101 T
b1 )
b1 4
b1 @
b1 O
b1 '
b1 3
b1 A
b1 W
1&
b10110000000000 :
b10 9
b1 1
b1 8
1!
#1508
0"
#1553
0!
#1603
b1010 C
b1010 P
b1010 T
b10 )
b10 4
b10 @
b10 O
b10 '
b10 3
b10 A
b10 W
b101010000000000 :
b11 9
b10 1
b10 8
1!
#1653
0!
#1703
b1011 F
b1011 J
b1011 N
b1011 R
b101 E
b101 I
b101 Y
b1010 D
b1010 H
b1010 X
b1011 C
b1011 P
b1011 T
b11 )
b11 4
b11 @
b11 O
b11 '
b11 3
b11 A
b11 W
b1 -
b1 6
b1 >
b1 U
1+
b10 ,
b10 5
b10 ?
b10 V
1*
b1 0
b1 7
b1 ;
b1 G
b111110111010100 :
b100 9
b11 1
b11 8
1!
#1753
0!
#1803
b1011 .
b1011 B
b1011 S
b0 C
b0 P
b0 T
b1011 E
b1011 I
b1011 Y
b1011 D
b1011 H
b1011 X
b1011 F
b1011 J
b1011 N
b1011 R
b0 )
b0 4
b0 @
b0 O
b0 '
b0 3
b0 A
b0 W
0&
b11 -
b11 6
b11 >
b11 U
b11 ,
b11 5
b11 ?
b11 V
b10 0
b10 7
b10 ;
b10 G
1(
1/
b1111111011 :
b0 9
b100 1
b100 8
1!
#1853
0!
#1903
b0 .
b0 B
b0 S
b0 E
b0 I
b0 Y
b0 D
b0 H
b0 X
b0 F
b0 J
b0 N
b0 R
b0 -
b0 6
b0 >
b0 U
0+
b0 ,
b0 5
b0 ?
b0 V
0*
b0 0
b0 7
b0 ;
b0 G
0(
0/
b0 :
b0 1
b0 8
1!
